0.000000;0.000000;0.000000;0.000000;0.000000;0.000000
150.000000;1120.000000;0.000000;0.000000;0.000000;0.000000
300.000000;1120.000000;0.000000;0.000000;0.000000;0.000000
450.000000;1120.000000;0.000000;0.000000;0.000000;0.000000
600.000000;1120.000000;0.000000;0.000000;0.000000;0.000000
750.000000;1120.000000;0.000000;0.000000;0.000000;0.000000
900.000000;1120.000000;0.000000;0.000000;0.000000;0.000000
1050.000000;1120.000000;0.000000;0.000000;0.000000;0.000000
1200.000000;1120.000000;0.000000;0.000000;0.000000;0.000000
1210.000000;1120.000000;0.000000;0.000000;0.000000;0.000000
1350.000000;1120.000000;0.000000;0.000000;0.000000;0.000000
1500.000000;1120.000000;41.925000;41.925000;41.925000;0.000000
1650.000000;1120.000000;41.925000;41.925000;41.925000;0.000000
1800.000000;1120.000000;187.731550;187.731550;187.731550;0.000000
1950.000000;1477.000000;187.731550;187.731550;187.731550;0.000000
2100.000000;1756.000000;221.142980;221.142980;221.142980;0.000000
2110.000000;1756.000000;221.142980;221.142980;221.142980;0.000000
2250.000000;1756.000000;221.142980;221.142980;221.142980;0.000000
2400.000000;1756.000000;254.775000;254.775000;254.775000;0.000000
2410.000000;1756.000000;254.775000;254.775000;254.775000;0.000000
2700.000000;1756.000000;295.880850;295.880850;295.880850;0.000000
2850.000000;1756.000000;295.880850;295.880850;295.880850;0.000000
3000.000000;1756.000000;360.780320;360.780320;360.780320;0.000000
3010.000000;1756.000000;360.780320;360.780320;360.780320;0.000000
3300.000000;1756.000000;398.825000;398.825000;398.825000;0.000000
3450.000000;1756.000000;398.825000;398.825000;398.825000;0.000000
3600.000000;1756.000000;461.738300;461.738300;461.738300;0.000000
3750.000000;1756.000000;461.738300;461.738300;461.738300;0.000000
3900.000000;1756.000000;489.778600;489.778600;489.778600;0.000000
3910.000000;1756.000000;489.778600;489.778600;489.778600;0.000000
4200.000000;1756.000000;534.877000;534.877000;534.877000;0.000000
4350.000000;1756.000000;534.877000;534.877000;534.877000;0.000000
4500.000000;1756.000000;574.050000;574.050000;574.050000;0.000000
4510.000000;1756.000000;574.050000;574.050000;574.050000;0.000000
4800.000000;1756.000000;606.196800;606.196800;606.196800;0.000000
4810.000000;1756.000000;606.196800;606.196800;606.196800;0.000000
5100.000000;1756.000000;639.754000;639.754000;639.754000;0.000000
5250.000000;1756.000000;639.754000;639.754000;639.754000;0.000000
5400.000000;1756.000000;671.875000;671.875000;671.875000;0.000000
5550.000000;1756.000000;671.875000;671.875000;671.875000;0.000000
5700.000000;1756.000000;699.261700;699.261700;699.261700;0.000000
5710.000000;1756.000000;699.261700;699.261700;699.261700;0.000000
6000.000000;1756.000000;755.725000;755.725000;755.725000;0.000000
6150.000000;1756.000000;755.725000;755.725000;755.725000;0.000000
6300.000000;1756.000000;769.803200;769.803200;769.803200;0.000000
6310.000000;1756.000000;769.803200;769.803200;769.803200;0.000000
6600.000000;1756.000000;767.709100;767.709100;767.709100;0.000000
6610.000000;1756.000000;767.709100;767.709100;767.709100;0.000000
6900.000000;1756.000000;793.926200;793.926200;793.926200;0.000000
7050.000000;1756.000000;793.926200;793.926200;793.926200;0.000000
7200.000000;1756.000000;832.733700;832.733700;832.733700;0.000000
7210.000000;1756.000000;832.733700;832.733700;832.733700;0.000000
7500.000000;1756.000000;909.290900;909.290900;909.290900;0.000000
7650.000000;1756.000000;909.290900;909.290900;909.290900;0.000000
7800.000000;1756.000000;1022.561500;1022.561500;1022.561500;0.000000
7950.000000;1756.000000;1022.561500;1022.561500;1022.561500;0.000000
8100.000000;1756.000000;1156.803200;1156.803200;1156.803200;0.000000
8250.000000;1756.000000;1156.803200;1156.803200;1156.803200;0.000000
8400.000000;1756.000000;1181.975400;1181.975400;1181.975400;0.000000
8410.000000;1756.000000;1181.975400;1181.975400;1181.975400;0.000000
8700.000000;1756.000000;1686.675000;1686.675000;1686.675000;0.000000
8710.000000;1756.000000;1686.675000;1686.675000;1686.675000;0.000000
9000.000000;1756.000000;7801.877000;7801.877000;7801.877000;0.000000
9300.000000;1756.000000;11541.845000;11541.845000;11541.845000;0.000000
9450.000000;1756.000000;11541.845000;11541.845000;11541.845000;0.000000
9600.000000;1756.000000;12183.663000;12183.663000;12183.663000;0.000000
9750.000000;1756.000000;12183.663000;12183.663000;12183.663000;0.000000
9900.000000;1756.000000;12826.599000;12826.599000;12826.599000;0.000000
10050.000000;1756.000000;12826.599000;12826.599000;12826.599000;0.000000
10200.000000;1756.000000;13445.369000;13445.369000;13445.369000;0.000000
10210.000000;1756.000000;13445.369000;13445.369000;13445.369000;0.000000
10500.000000;1756.000000;14112.600000;14112.600000;14112.600000;0.000000
10510.000000;1756.000000;14112.600000;14112.600000;14112.600000;0.000000
10800.000000;1756.000000;14765.770000;14765.770000;14765.770000;0.000000
10950.000000;1756.000000;14765.770000;14765.770000;14765.770000;0.000000
11100.000000;1756.000000;15463.230000;15463.230000;15463.230000;0.000000
11250.000000;1875.000000;15463.230000;15463.230000;15463.230000;0.000000
11400.000000;1931.200000;16102.984000;16102.984000;16102.984000;0.000000
11550.000000;2526.200000;16102.984000;16102.984000;16102.984000;0.000000
11700.000000;2991.200000;16715.476000;16715.476000;16715.476000;0.000000
11850.000000;2991.200000;16715.476000;16715.476000;16715.476000;0.000000
12000.000000;2991.200000;17287.075000;17287.075000;17287.075000;0.000000
12150.000000;3824.200000;17287.075000;17287.075000;17287.075000;0.000000
12300.000000;4438.400000;17889.032000;17889.032000;17889.032000;0.000000
12450.000000;4475.200000;17889.032000;17889.032000;17889.032000;0.000000
12600.000000;4475.200000;17889.032000;17889.032000;17889.032000;0.000000
12750.000000;7212.200000;18461.663000;18461.663000;18461.663000;0.000000
12900.000000;9351.200000;18461.663000;18461.663000;18461.663000;0.000000
12910.000000;9111.200000;18988.155000;18988.155000;18988.155000;0.000000
13200.000000;6807.200000;18988.155000;18988.155000;18988.155000;0.000000
13350.000000;6807.200000;19586.500000;19586.500000;19586.500000;0.000000
13500.000000;6807.200000;19586.500000;19586.500000;19586.500000;0.000000
13650.000000;6807.200000;20161.883000;20161.883000;20161.883000;0.000000
13800.000000;6807.200000;20161.883000;20161.883000;20161.883000;0.000000
13950.000000;6807.200000;20717.615000;20717.615000;20717.615000;0.000000
14100.000000;6807.200000;20717.615000;20717.615000;20717.615000;0.000000
14110.000000;6747.200000;21224.800000;21224.800000;21224.800000;0.000000
14400.000000;6171.200000;21224.800000;21224.800000;21224.800000;0.000000
14410.000000;6171.200000;21758.000000;21758.000000;21758.000000;0.000000
14700.000000;6171.200000;21758.000000;21758.000000;21758.000000;0.000000
14850.000000;6171.200000;22223.475000;22223.475000;22223.475000;0.000000
15000.000000;6171.200000;22223.475000;22223.475000;22223.475000;0.000000
15150.000000;6171.200000;22668.353000;22668.353000;22668.353000;0.000000
15300.000000;6171.200000;22668.353000;22668.353000;22668.353000;0.000000
15450.000000;6171.200000;23236.125000;23236.125000;23236.125000;0.000000
15600.000000;6171.200000;23236.125000;23236.125000;23236.125000;0.000000
15750.000000;6171.200000;23681.175000;23681.175000;23681.175000;0.000000
15900.000000;6171.200000;23681.175000;23681.175000;23681.175000;0.000000
15910.000000;6171.200000;24137.663000;24137.663000;24137.663000;0.000000
16200.000000;6171.200000;24137.663000;24137.663000;24137.663000;0.000000
16210.000000;6111.200000;24575.016000;24575.016000;24575.016000;0.000000
16500.000000;5535.200000;24575.016000;24575.016000;24575.016000;0.000000
16510.000000;5475.200000;24963.091000;24963.091000;24963.091000;0.000000
16800.000000;4899.200000;24963.091000;24963.091000;24963.091000;0.000000
16950.000000;4899.200000;25368.925000;25368.925000;25368.925000;0.000000
17100.000000;4899.200000;25368.925000;25368.925000;25368.925000;0.000000
17110.000000;4859.200000;25826.230000;25826.230000;25826.230000;0.000000
17400.000000;4475.200000;25826.230000;25826.230000;25826.230000;0.000000
17550.000000;4475.200000;26275.107000;26275.107000;26275.107000;0.000000
17700.000000;4475.200000;26275.107000;26275.107000;26275.107000;0.000000
18000.000000;4475.200000;26668.385000;26668.385000;26668.385000;0.000000
18150.000000;4475.200000;27071.123000;27071.123000;27071.123000;0.000000
18300.000000;4475.200000;27071.123000;27071.123000;27071.123000;0.000000
18450.000000;4475.200000;27423.508000;27423.508000;27423.508000;0.000000
18600.000000;4475.200000;27423.508000;27423.508000;27423.508000;0.000000
18750.000000;4475.200000;27712.425000;27712.425000;27712.425000;0.000000
18900.000000;4475.200000;27712.425000;27712.425000;27712.425000;0.000000
18910.000000;4455.200000;28031.786000;28031.786000;28031.786000;0.000000
19200.000000;4263.200000;28031.786000;28031.786000;28031.786000;0.000000
19210.000000;4263.200000;28360.091000;28360.091000;28360.091000;0.000000
19500.000000;4263.200000;28360.091000;28360.091000;28360.091000;0.000000
19510.000000;4263.200000;28756.766000;28756.766000;28756.766000;0.000000
19800.000000;4263.200000;28756.766000;28756.766000;28756.766000;0.000000
19950.000000;4263.200000;29035.750000;29035.750000;29035.750000;0.000000
20100.000000;4263.200000;29035.750000;29035.750000;29035.750000;0.000000
20250.000000;4263.200000;29202.246000;29202.246000;29202.246000;0.000000
20400.000000;4263.200000;29202.246000;29202.246000;29202.246000;0.000000
20410.000000;4263.200000;29342.770000;29342.770000;29342.770000;0.000000
20700.000000;4263.200000;29342.770000;29342.770000;29342.770000;0.000000
20710.000000;4263.200000;29611.262000;29611.262000;29611.262000;0.000000
21000.000000;4263.200000;29611.262000;29611.262000;29611.262000;0.000000
21150.000000;4263.200000;29986.738000;29986.738000;29986.738000;0.000000
21300.000000;4263.200000;29986.738000;29986.738000;29986.738000;0.000000
21450.000000;4263.200000;30285.631000;30285.631000;30285.631000;0.000000
21600.000000;4263.200000;30285.631000;30285.631000;30285.631000;0.000000
21750.000000;4263.200000;30661.107000;30661.107000;30661.107000;0.000000
21900.000000;4263.200000;30661.107000;30661.107000;30661.107000;0.000000
22050.000000;4263.200000;30781.550000;30781.550000;30781.550000;0.000000
22200.000000;4263.200000;30781.550000;30781.550000;30781.550000;0.000000
22210.000000;4263.200000;30821.583000;30821.583000;30821.583000;0.000000
22500.000000;4263.200000;30821.583000;30821.583000;30821.583000;0.000000
22650.000000;4263.200000;29847.246000;29847.246000;29847.246000;0.000000
22800.000000;4263.200000;29847.246000;29847.246000;29847.246000;0.000000
22950.000000;4263.200000;31300.861000;31300.861000;31300.861000;0.000000
23100.000000;4263.200000;31300.861000;31300.861000;31300.861000;0.000000
23110.000000;4243.200000;31632.950000;31632.950000;31632.950000;0.000000
23400.000000;4051.200000;31632.950000;31632.950000;31632.950000;0.000000
23550.000000;4051.200000;31933.262000;31933.262000;31933.262000;0.000000
23700.000000;4051.200000;31933.262000;31933.262000;31933.262000;0.000000
23710.000000;4051.200000;32416.883000;32416.883000;32416.883000;0.000000
24000.000000;4051.200000;32416.883000;32416.883000;32416.883000;0.000000
24010.000000;4051.200000;32403.725000;32403.725000;32403.725000;0.000000
24300.000000;4051.200000;32403.725000;32403.725000;32403.725000;0.000000
24310.000000;4051.200000;26256.230000;26256.230000;26256.230000;0.000000
24600.000000;4051.200000;26256.230000;26256.230000;26256.230000;0.000000
24610.000000;4051.200000;24476.417000;24476.417000;24476.417000;0.000000
24900.000000;4051.200000;24476.417000;24476.417000;24476.417000;0.000000
25050.000000;4051.200000;23168.615000;23168.615000;23168.615000;0.000000
25200.000000;4051.200000;23168.615000;23168.615000;23168.615000;0.000000
25210.000000;4051.200000;23003.968000;23003.968000;23003.968000;0.000000
25500.000000;4051.200000;23003.968000;23003.968000;23003.968000;0.000000
25650.000000;4051.200000;19529.525000;19529.525000;19529.525000;0.000000
25800.000000;4051.200000;19529.525000;19529.525000;19529.525000;0.000000
25810.000000;4051.200000;19780.000000;19780.000000;19780.000000;0.000000
26100.000000;4051.200000;19780.000000;19780.000000;19780.000000;0.000000
26250.000000;4051.200000;26283.492000;26283.492000;26283.492000;0.000000
26400.000000;4051.200000;26283.492000;26283.492000;26283.492000;0.000000
26550.000000;4051.200000;22761.663000;22761.663000;22761.663000;0.000000
26700.000000;4051.200000;22761.663000;22761.663000;22761.663000;0.000000
26850.000000;4051.200000;23254.400000;23254.400000;23254.400000;0.000000
27000.000000;4051.200000;23254.400000;23254.400000;23254.400000;0.000000
27150.000000;4051.200000;18526.851000;18526.851000;18526.851000;0.000000
27300.000000;4051.200000;18526.851000;18526.851000;18526.851000;0.000000
27450.000000;4051.200000;16742.050000;16742.050000;16742.050000;0.000000
27600.000000;4051.200000;16742.050000;16742.050000;16742.050000;0.000000
27610.000000;4051.200000;18222.540000;18222.540000;18222.540000;0.000000
27900.000000;4051.200000;18222.540000;18222.540000;18222.540000;0.000000
28050.000000;4051.200000;19024.877000;19024.877000;19024.877000;0.000000
28200.000000;4051.200000;19024.877000;19024.877000;19024.877000;0.000000
28350.000000;5598.200000;19499.984000;19499.984000;19499.984000;0.000000
28500.000000;6807.200000;19499.984000;19499.984000;19499.984000;0.000000
28510.000000;6767.200000;17580.550000;17580.550000;17580.550000;0.000000
28800.000000;6383.200000;17580.550000;17580.550000;17580.550000;0.000000
28950.000000;6978.200000;18745.893000;18745.893000;18745.893000;0.000000
29100.000000;7443.200000;18745.893000;18745.893000;18745.893000;0.000000
29110.000000;7363.200000;20463.786000;20463.786000;20463.786000;0.000000
29400.000000;6595.200000;20463.786000;20463.786000;20463.786000;0.000000
29550.000000;7190.200000;23820.968000;23820.968000;23820.968000;0.000000
29700.000000;7655.200000;23820.968000;23820.968000;23820.968000;0.000000
29710.000000;7575.200000;27850.369000;27850.369000;27850.369000;0.000000
30000.000000;6807.200000;27850.369000;27850.369000;27850.369000;0.000000
30150.000000;6807.200000;24436.900000;24436.900000;24436.900000;0.000000
30300.000000;6807.200000;24436.900000;24436.900000;24436.900000;0.000000
30310.000000;6787.200000;21130.845000;21130.845000;21130.845000;0.000000
30600.000000;6595.200000;21130.845000;21130.845000;21130.845000;0.000000
30900.000000;6595.200000;17793.400000;17793.400000;17793.400000;0.000000
30910.000000;6595.200000;15385.615000;15385.615000;15385.615000;0.000000
31200.000000;6595.200000;15385.615000;15385.615000;15385.615000;0.000000
31350.000000;6595.200000;13780.984000;13780.984000;13780.984000;0.000000
31500.000000;6595.200000;13780.984000;13780.984000;13780.984000;0.000000
31510.000000;6575.200000;12920.984000;12920.984000;12920.984000;0.000000
31800.000000;6383.200000;12920.984000;12920.984000;12920.984000;0.000000
31950.000000;12928.200000;10395.250000;10395.250000;10395.250000;0.000000
32100.000000;17951.200000;10395.250000;10395.250000;10395.250000;0.000000
32110.000000;17883.200000;10661.893000;10661.893000;10661.893000;0.000000
32400.000000;16347.200000;10661.893000;10661.893000;10661.893000;0.000000
32410.000000;16324.000000;16540.337000;16540.337000;16540.337000;0.000000
32700.000000;15748.000000;16540.337000;16540.337000;16540.337000;0.000000
32850.000000;15748.000000;16241.702000;16241.702000;16241.702000;0.000000
33000.000000;15748.000000;16241.702000;16241.702000;16241.702000;0.000000
33150.000000;15748.000000;24591.700000;24591.700000;24591.700000;0.000000
33300.000000;15748.000000;24591.700000;24591.700000;24591.700000;0.000000
33310.000000;15568.000000;24292.850000;24292.850000;24292.850000;0.000000
33600.000000;13840.000000;24292.850000;24292.850000;24292.850000;0.000000
33750.000000;14792.000000;20049.524000;20049.524000;20049.524000;0.000000
33900.000000;15536.000000;20049.524000;20049.524000;20049.524000;0.000000
33910.000000;15516.000000;19944.647000;19944.647000;19944.647000;0.000000
34200.000000;15324.000000;19944.647000;19944.647000;19944.647000;0.000000
34350.000000;17585.000000;22979.200000;22979.200000;22979.200000;0.000000
34500.000000;19260.000000;22979.200000;22979.200000;22979.200000;0.000000
34510.000000;19032.000000;20339.000000;20339.000000;20339.000000;0.000000
34800.000000;15960.000000;20339.000000;20339.000000;20339.000000;0.000000
34810.000000;15880.000000;13644.975000;13644.975000;13644.975000;0.000000
35100.000000;15112.000000;13644.975000;13644.975000;13644.975000;0.000000
35110.000000;14932.000000;9682.181000;9682.181000;9682.181000;0.000000
35400.000000;13204.000000;9682.181000;9682.181000;9682.181000;0.000000
35410.000000;13164.000000;13589.032000;13589.032000;13589.032000;0.000000
35700.000000;12780.000000;13589.032000;13589.032000;13589.032000;0.000000
35850.000000;12780.000000;17423.385000;17423.385000;17423.385000;0.000000
36000.000000;12780.000000;17423.385000;17423.385000;17423.385000;0.000000
36010.000000;12740.000000;11618.600000;11618.600000;11618.600000;0.000000
36300.000000;12356.000000;11618.600000;11618.600000;11618.600000;0.000000
36310.000000;12356.000000;10993.337000;10993.337000;10993.337000;0.000000
36600.000000;12356.000000;10993.337000;10993.337000;10993.337000;0.000000
36610.000000;12336.000000;11771.250000;11771.250000;11771.250000;0.000000
36900.000000;12144.000000;11771.250000;11771.250000;11771.250000;0.000000
37050.000000;13810.000000;17484.230000;17484.230000;17484.230000;0.000000
37200.000000;15112.000000;17484.230000;17484.230000;17484.230000;0.000000
37210.000000;15012.000000;16531.909000;16531.909000;16531.909000;0.000000
37500.000000;14052.000000;16531.909000;16531.909000;16531.909000;0.000000
37650.000000;19764.000000;15805.725000;15805.725000;15805.725000;0.000000
37800.000000;24136.000000;15805.725000;15805.725000;15805.725000;0.000000
37950.000000;27917.000000;14765.383000;14765.383000;14765.383000;0.000000
38100.000000;30800.000000;14765.383000;14765.383000;14765.383000;0.000000
38110.000000;30700.000000;15068.748000;15068.748000;15068.748000;0.000000
38400.000000;29740.000000;15068.748000;15068.748000;15068.748000;0.000000
38550.000000;30335.000000;14503.599000;14503.599000;14503.599000;0.000000
38700.000000;30800.000000;14503.599000;14503.599000;14503.599000;0.000000
38850.000000;30800.000000;13194.550000;13194.550000;13194.550000;0.000000
39000.000000;30800.000000;13194.550000;13194.550000;13194.550000;0.000000
39150.000000;30800.000000;12546.540000;12546.540000;12546.540000;0.000000
39300.000000;30800.000000;12546.540000;12546.540000;12546.540000;0.000000
39310.000000;30800.000000;14042.123000;14042.123000;14042.123000;0.000000
39600.000000;30800.000000;14042.123000;14042.123000;14042.123000;0.000000
39610.000000;30800.000000;19918.460000;19918.460000;19918.460000;0.000000
39900.000000;30800.000000;19918.460000;19918.460000;19918.460000;0.000000
39910.000000;30800.000000;23587.650000;23587.650000;23587.650000;0.000000
40200.000000;30800.000000;23587.650000;23587.650000;23587.650000;0.000000
40210.000000;30800.000000;23271.385000;23271.385000;23271.385000;0.000000
40500.000000;30800.000000;23271.385000;23271.385000;23271.385000;0.000000
40650.000000;30800.000000;21683.524000;21683.524000;21683.524000;0.000000
40800.000000;30800.000000;21683.524000;21683.524000;21683.524000;0.000000
40810.000000;30800.000000;20796.262000;20796.262000;20796.262000;0.000000
41100.000000;30800.000000;20796.262000;20796.262000;20796.262000;0.000000
41110.000000;30800.000000;16882.875000;16882.875000;16882.875000;0.000000
41400.000000;30800.000000;16882.875000;16882.875000;16882.875000;0.000000
41550.000000;30800.000000;14480.508000;14480.508000;14480.508000;0.000000
41700.000000;30800.000000;14480.508000;14480.508000;14480.508000;0.000000
41850.000000;30800.000000;11317.170000;11317.170000;11317.170000;0.000000
42000.000000;30800.000000;11317.170000;11317.170000;11317.170000;0.000000
42010.000000;30800.000000;7499.200000;7499.200000;7499.200000;0.000000
42300.000000;30800.000000;7499.200000;7499.200000;7499.200000;0.000000
42310.000000;30800.000000;5053.016000;5053.016000;5053.016000;0.000000
42600.000000;30800.000000;5053.016000;5053.016000;5053.016000;0.000000
42610.000000;30800.000000;3382.315500;3382.315500;3382.315500;0.000000
42900.000000;30800.000000;3382.315500;3382.315500;3382.315500;0.000000
42910.000000;30740.000000;3277.438500;3277.438500;3277.438500;0.000000
43200.000000;30164.000000;3277.438500;3277.438500;3277.438500;0.000000
43350.000000;30521.000000;3235.238300;3235.238300;3235.238300;0.000000
43500.000000;30800.000000;3235.238300;3235.238300;3235.238300;0.000000
43650.000000;30800.000000;2738.364700;2738.364700;2738.364700;0.000000
43800.000000;30800.000000;2738.364700;2738.364700;2738.364700;0.000000
43810.000000;30780.000000;2419.825000;2419.825000;2419.825000;0.000000
44100.000000;30588.000000;2419.825000;2419.825000;2419.825000;0.000000
44250.000000;30707.000000;2394.364700;2394.364700;2394.364700;0.000000
44400.000000;30800.000000;2394.364700;2394.364700;2394.364700;0.000000
44410.000000;30760.000000;2573.709100;2573.709100;2573.709100;0.000000
44700.000000;30376.000000;2573.709100;2573.709100;2573.709100;0.000000
44710.000000;30376.000000;2606.221400;2606.221400;2606.221400;0.000000
45000.000000;30376.000000;2606.221400;2606.221400;2606.221400;0.000000
45010.000000;30376.000000;2463.586100;2463.586100;2463.586100;0.000000
45300.000000;30376.000000;2463.586100;2463.586100;2463.586100;0.000000
45310.000000;30276.000000;1922.413900;1922.413900;1922.413900;0.000000
45600.000000;29316.000000;1922.413900;1922.413900;1922.413900;0.000000
45610.000000;29316.000000;1596.246000;1596.246000;1596.246000;0.000000
45900.000000;29316.000000;1596.246000;1596.246000;1596.246000;0.000000
46050.000000;30149.000000;1406.413900;1406.413900;1406.413900;0.000000
46200.000000;30800.000000;1406.413900;1406.413900;1406.413900;0.000000
46350.000000;30800.000000;1249.098400;1249.098400;1249.098400;0.000000
46500.000000;30800.000000;1249.098400;1249.098400;1249.098400;0.000000
46650.000000;30800.000000;1061.364700;1061.364700;1061.364700;0.000000
46800.000000;30800.000000;1061.364700;1061.364700;1061.364700;0.000000
46950.000000;30800.000000;997.389300;997.389300;997.389300;0.000000
47100.000000;30800.000000;997.389300;997.389300;997.389300;0.000000
47250.000000;30800.000000;936.561500;936.561500;936.561500;0.000000
47400.000000;30800.000000;936.561500;936.561500;936.561500;0.000000
47410.000000;30800.000000;916.635300;916.635300;916.635300;0.000000
47700.000000;30800.000000;916.635300;916.635300;916.635300;0.000000
47850.000000;30800.000000;910.525000;910.525000;910.525000;0.000000
48000.000000;30800.000000;910.525000;910.525000;910.525000;0.000000
48010.000000;30800.000000;866.290900;866.290900;866.290900;0.000000
48300.000000;30800.000000;866.290900;866.290900;866.290900;0.000000
48310.000000;30800.000000;971.172200;971.172200;971.172200;0.000000
48600.000000;30800.000000;971.172200;971.172200;971.172200;0.000000
48750.000000;30800.000000;1103.315500;1103.315500;1103.315500;0.000000
48900.000000;30800.000000;1103.315500;1103.315500;1103.315500;0.000000
48910.000000;30800.000000;1141.155500;1141.155500;1141.155500;0.000000
49200.000000;30800.000000;1141.155500;1141.155500;1141.155500;0.000000
49210.000000;30800.000000;1201.901600;1201.901600;1201.901600;0.000000
49500.000000;30800.000000;1201.901600;1201.901600;1201.901600;0.000000
49510.000000;30800.000000;1197.709100;1197.709100;1197.709100;0.000000
49800.000000;30800.000000;1197.709100;1197.709100;1197.709100;0.000000
49950.000000;30800.000000;1210.290900;1210.290900;1210.290900;0.000000
50100.000000;30800.000000;1210.290900;1210.290900;1210.290900;0.000000
50110.000000;30800.000000;1303.975000;1303.975000;1303.975000;0.000000
50400.000000;30800.000000;1303.975000;1303.975000;1303.975000;0.000000
50410.000000;30800.000000;1462.000000;1462.000000;1462.000000;0.000000
50700.000000;30800.000000;1462.000000;1462.000000;1462.000000;0.000000
50710.000000;30780.000000;1372.852400;1372.852400;1372.852400;0.000000
51000.000000;30588.000000;1372.852400;1372.852400;1372.852400;0.000000
51150.000000;30707.000000;1535.413900;1535.413900;1535.413900;0.000000
51300.000000;30800.000000;1535.413900;1535.413900;1535.413900;0.000000
51450.000000;30800.000000;1455.709100;1455.709100;1455.709100;0.000000
51600.000000;30800.000000;1455.709100;1455.709100;1455.709100;0.000000
51750.000000;30800.000000;1173.586100;1173.586100;1173.586100;0.000000
51900.000000;30800.000000;1173.586100;1173.586100;1173.586100;0.000000
51910.000000;30800.000000;1028.852400;1028.852400;1028.852400;0.000000
52200.000000;30800.000000;1028.852400;1028.852400;1028.852400;0.000000
52350.000000;30800.000000;1133.733700;1133.733700;1133.733700;0.000000
52500.000000;30800.000000;1133.733700;1133.733700;1133.733700;0.000000
52650.000000;30800.000000;1077.150000;1077.150000;1077.150000;0.000000
52800.000000;30800.000000;1077.150000;1077.150000;1077.150000;0.000000
52950.000000;30800.000000;969.546800;969.546800;969.546800;0.000000
53100.000000;30800.000000;969.546800;969.546800;969.546800;0.000000
53250.000000;30800.000000;840.650000;840.650000;840.650000;0.000000
53400.000000;30800.000000;840.650000;840.650000;840.650000;0.000000
53410.000000;30800.000000;748.827800;748.827800;748.827800;0.000000
53700.000000;30800.000000;748.827800;748.827800;748.827800;0.000000
53710.000000;30800.000000;626.123000;626.123000;626.123000;0.000000
54000.000000;30800.000000;626.123000;626.123000;626.123000;0.000000
54010.000000;30800.000000;555.852400;555.852400;555.852400;0.000000
54300.000000;30800.000000;555.852400;555.852400;555.852400;0.000000
54310.000000;30800.000000;501.668100;501.668100;501.668100;0.000000
54600.000000;30800.000000;501.668100;501.668100;501.668100;0.000000
54750.000000;30800.000000;381.625000;381.625000;381.625000;0.000000
54900.000000;30800.000000;381.625000;381.625000;381.625000;0.000000
55050.000000;30800.000000;208.857020;208.857020;208.857020;0.000000
55200.000000;30800.000000;208.857020;208.857020;208.857020;0.000000
55350.000000;30800.000000;0.000000;0.000000;0.000000;0.000000
55500.000000;30800.000000;0.000000;0.000000;0.000000;0.000000
55650.000000;30800.000000;0.000000;0.000000;0.000000;0.000000
55800.000000;30800.000000;0.000000;0.000000;0.000000;0.000000
55810.000000;30800.000000;0.000000;0.000000;0.000000;0.000000
56100.000000;30800.000000;0.000000;0.000000;0.000000;0.000000
56110.000000;30800.000000;0.000000;0.000000;0.000000;0.000000
56400.000000;30800.000000;0.000000;0.000000;0.000000;0.000000
56410.000000;30720.000000;0.000000;0.000000;0.000000;0.000000
56700.000000;29952.000000;0.000000;0.000000;0.000000;0.000000
56850.000000;30428.000000;0.000000;0.000000;0.000000;0.000000
57000.000000;30800.000000;0.000000;0.000000;0.000000;0.000000
57010.000000;30800.000000;0.000000;0.000000;0.000000;0.000000
57300.000000;30800.000000;0.000000;0.000000;0.000000;0.000000
57310.000000;30800.000000;0.000000;0.000000;0.000000;0.000000
57600.000000;30800.000000;0.000000;0.000000;0.000000;0.000000
57750.000000;30800.000000;0.000000;0.000000;0.000000;0.000000
57900.000000;30800.000000;0.000000;0.000000;0.000000;0.000000
57910.000000;30800.000000;0.000000;0.000000;0.000000;0.000000
58200.000000;30800.000000;0.000000;0.000000;0.000000;0.000000
58350.000000;30800.000000;0.000000;0.000000;0.000000;0.000000
58500.000000;30800.000000;0.000000;0.000000;0.000000;0.000000
58650.000000;30800.000000;0.000000;0.000000;0.000000;0.000000
58800.000000;30800.000000;0.000000;0.000000;0.000000;0.000000
58950.000000;30800.000000;0.000000;0.000000;0.000000;0.000000
59100.000000;30800.000000;0.000000;0.000000;0.000000;0.000000
59110.000000;30800.000000;0.000000;0.000000;0.000000;0.000000
59400.000000;30800.000000;0.000000;0.000000;0.000000;0.000000
59410.000000;30800.000000;0.000000;0.000000;0.000000;0.000000
59700.000000;30800.000000;0.000000;0.000000;0.000000;0.000000
59710.000000;30800.000000;0.000000;0.000000;0.000000;0.000000
60000.000000;30800.000000;0.000000;0.000000;0.000000;0.000000
60150.000000;30800.000000;0.000000;0.000000;0.000000;0.000000
60300.000000;30800.000000;0.000000;0.000000;0.000000;0.000000
60310.000000;30760.000000;0.000000;0.000000;0.000000;0.000000
60600.000000;30376.000000;0.000000;0.000000;0.000000;0.000000
60610.000000;30376.000000;0.000000;0.000000;0.000000;0.000000
60900.000000;30376.000000;0.000000;0.000000;0.000000;0.000000
61050.000000;30614.000000;0.000000;0.000000;0.000000;0.000000
61200.000000;30800.000000;0.000000;0.000000;0.000000;0.000000
61350.000000;30800.000000;0.000000;0.000000;0.000000;0.000000
61500.000000;30800.000000;0.000000;0.000000;0.000000;0.000000
61510.000000;30800.000000;0.000000;0.000000;0.000000;0.000000
61800.000000;30800.000000;0.000000;0.000000;0.000000;0.000000
61950.000000;30800.000000;0.000000;0.000000;0.000000;0.000000
62100.000000;30800.000000;0.000000;0.000000;0.000000;0.000000
62250.000000;30800.000000;0.000000;0.000000;0.000000;0.000000
62400.000000;30800.000000;0.000000;0.000000;0.000000;0.000000
62550.000000;30800.000000;0.000000;0.000000;0.000000;0.000000
62700.000000;30800.000000;0.000000;0.000000;0.000000;0.000000
62850.000000;30800.000000;0.000000;0.000000;0.000000;0.000000
63000.000000;30800.000000;0.000000;0.000000;0.000000;0.000000
63150.000000;30800.000000;0.000000;0.000000;0.000000;0.000000
63300.000000;30800.000000;0.000000;0.000000;0.000000;0.000000
63310.000000;30800.000000;0.000000;0.000000;0.000000;0.000000
63600.000000;30800.000000;0.000000;0.000000;0.000000;0.000000
63750.000000;30800.000000;0.000000;0.000000;0.000000;0.000000
63900.000000;30800.000000;0.000000;0.000000;0.000000;0.000000
64050.000000;30800.000000;0.000000;0.000000;0.000000;0.000000
64200.000000;30800.000000;0.000000;0.000000;0.000000;0.000000
64210.000000;30800.000000;0.000000;0.000000;0.000000;0.000000
64500.000000;30800.000000;0.000000;0.000000;0.000000;0.000000
64650.000000;30800.000000;0.000000;0.000000;0.000000;0.000000
64800.000000;30800.000000;0.000000;0.000000;0.000000;0.000000
64950.000000;30800.000000;0.000000;0.000000;0.000000;0.000000
65100.000000;30800.000000;0.000000;0.000000;0.000000;0.000000
65250.000000;30800.000000;0.000000;0.000000;0.000000;0.000000
65400.000000;30800.000000;0.000000;0.000000;0.000000;0.000000
65550.000000;30800.000000;0.000000;0.000000;0.000000;0.000000
65700.000000;30800.000000;0.000000;0.000000;0.000000;0.000000
66000.000000;30800.000000;0.000000;0.000000;0.000000;0.000000
66300.000000;30800.000000;0.000000;0.000000;0.000000;0.000000
66600.000000;30800.000000;0.000000;0.000000;0.000000;0.000000
66900.000000;30800.000000;0.000000;0.000000;0.000000;0.000000
67200.000000;30800.000000;0.000000;0.000000;0.000000;0.000000
67500.000000;30800.000000;0.000000;0.000000;0.000000;0.000000
67800.000000;30800.000000;0.000000;0.000000;0.000000;0.000000
67810.000000;30800.000000;0.000000;0.000000;0.000000;0.000000
68100.000000;30800.000000;0.000000;0.000000;0.000000;0.000000
68400.000000;30800.000000;0.000000;0.000000;0.000000;0.000000
68550.000000;30800.000000;0.000000;0.000000;0.000000;0.000000
68700.000000;30800.000000;0.000000;0.000000;0.000000;0.000000
69000.000000;30800.000000;0.000000;0.000000;0.000000;0.000000
69300.000000;30800.000000;0.000000;0.000000;0.000000;0.000000
69600.000000;30800.000000;0.000000;0.000000;0.000000;0.000000
69900.000000;30800.000000;0.000000;0.000000;0.000000;0.000000
70200.000000;30800.000000;0.000000;0.000000;0.000000;0.000000
70500.000000;30800.000000;0.000000;0.000000;0.000000;0.000000
70800.000000;30800.000000;0.000000;0.000000;0.000000;0.000000
71100.000000;30800.000000;0.000000;0.000000;0.000000;0.000000
71400.000000;30800.000000;0.000000;0.000000;0.000000;0.000000
71700.000000;30800.000000;0.000000;0.000000;0.000000;0.000000
72000.000000;30800.000000;0.000000;0.000000;0.000000;0.000000
72300.000000;30800.000000;0.000000;0.000000;0.000000;0.000000
72600.000000;30800.000000;0.000000;0.000000;0.000000;0.000000
72900.000000;30800.000000;0.000000;0.000000;0.000000;0.000000
73200.000000;30800.000000;0.000000;0.000000;0.000000;0.000000
73500.000000;30800.000000;0.000000;0.000000;0.000000;0.000000
73800.000000;30800.000000;0.000000;0.000000;0.000000;0.000000
74100.000000;30800.000000;0.000000;0.000000;0.000000;0.000000
74400.000000;30800.000000;0.000000;0.000000;0.000000;0.000000
74700.000000;30800.000000;0.000000;0.000000;0.000000;0.000000
75000.000000;30800.000000;0.000000;0.000000;0.000000;0.000000
75300.000000;30800.000000;0.000000;0.000000;0.000000;0.000000
75600.000000;30800.000000;0.000000;0.000000;0.000000;0.000000
75900.000000;30800.000000;0.000000;0.000000;0.000000;0.000000
76200.000000;30800.000000;0.000000;0.000000;0.000000;0.000000
76500.000000;30800.000000;0.000000;0.000000;0.000000;0.000000
76800.000000;30800.000000;0.000000;0.000000;0.000000;0.000000
77100.000000;30800.000000;0.000000;0.000000;0.000000;0.000000
77400.000000;30800.000000;0.000000;0.000000;0.000000;0.000000
77700.000000;30800.000000;0.000000;0.000000;0.000000;0.000000
78000.000000;30800.000000;0.000000;0.000000;0.000000;0.000000
78300.000000;30800.000000;0.000000;0.000000;0.000000;0.000000
78310.000000;30800.000000;0.000000;0.000000;0.000000;0.000000
78600.000000;30800.000000;0.000000;0.000000;0.000000;0.000000
78750.000000;30800.000000;0.000000;0.000000;0.000000;0.000000
78900.000000;30800.000000;0.000000;0.000000;0.000000;0.000000
79200.000000;30800.000000;0.000000;0.000000;0.000000;0.000000
79500.000000;30800.000000;0.000000;0.000000;0.000000;0.000000
79800.000000;30800.000000;0.000000;0.000000;0.000000;0.000000
80100.000000;30800.000000;0.000000;0.000000;0.000000;0.000000
80400.000000;30800.000000;0.000000;0.000000;0.000000;0.000000
80700.000000;30800.000000;0.000000;0.000000;0.000000;0.000000
81000.000000;30800.000000;0.000000;0.000000;0.000000;0.000000
81300.000000;30800.000000;0.000000;0.000000;0.000000;0.000000
81600.000000;30800.000000;0.000000;0.000000;0.000000;0.000000
81900.000000;30800.000000;0.000000;0.000000;0.000000;0.000000
81910.000000;30800.000000;0.000000;0.000000;0.000000;0.000000
82200.000000;30800.000000;0.000000;0.000000;0.000000;0.000000
82350.000000;30800.000000;0.000000;0.000000;0.000000;0.000000
82500.000000;30800.000000;0.000000;0.000000;0.000000;0.000000
82800.000000;30800.000000;0.000000;0.000000;0.000000;0.000000
83100.000000;30800.000000;0.000000;0.000000;0.000000;0.000000
83400.000000;30800.000000;0.000000;0.000000;0.000000;0.000000
83700.000000;30800.000000;0.000000;0.000000;0.000000;0.000000
84000.000000;30800.000000;0.000000;0.000000;0.000000;0.000000
84300.000000;30800.000000;0.000000;0.000000;0.000000;0.000000
84600.000000;30800.000000;0.000000;0.000000;0.000000;0.000000
84900.000000;30800.000000;0.000000;0.000000;0.000000;0.000000
85200.000000;30800.000000;0.000000;0.000000;0.000000;0.000000
85500.000000;30800.000000;0.000000;0.000000;0.000000;0.000000
85800.000000;30800.000000;0.000000;0.000000;0.000000;0.000000
86100.000000;30800.000000;0.000000;0.000000;0.000000;0.000000
86400.000000;30800.000000;0.000000;0.000000;0.000000;0.000000
86700.000000;30800.000000;0.000000;0.000000;0.000000;0.000000
87000.000000;30800.000000;0.000000;0.000000;0.000000;0.000000
87300.000000;30800.000000;0.000000;0.000000;0.000000;0.000000
87600.000000;30800.000000;0.000000;0.000000;0.000000;0.000000
87900.000000;30800.000000;0.000000;0.000000;0.000000;0.000000
88200.000000;30800.000000;0.000000;0.000000;0.000000;0.000000
88500.000000;30800.000000;0.000000;0.000000;0.000000;0.000000
88800.000000;30800.000000;0.000000;0.000000;0.000000;0.000000
89100.000000;30800.000000;0.000000;0.000000;0.000000;0.000000
89400.000000;30800.000000;0.000000;0.000000;0.000000;0.000000
89700.000000;30800.000000;372.317220;372.317220;372.317220;0.000000
90000.000000;30800.000000;870.487700;870.487700;870.487700;0.000000
90300.000000;30800.000000;29.365861;29.365861;29.365861;0.000000
90600.000000;30800.000000;302.075000;302.075000;302.075000;0.000000
90900.000000;30800.000000;1116.950800;1116.950800;1116.950800;0.000000
91200.000000;30800.000000;1653.926200;1653.926200;1653.926200;0.000000
91500.000000;30800.000000;2401.709100;2401.709100;2401.709100;0.000000
91800.000000;30800.000000;2448.901600;2448.901600;2448.901600;0.000000
92100.000000;30800.000000;2873.659900;2873.659900;2873.659900;0.000000
92400.000000;30800.000000;2557.975400;2557.975400;2557.975400;0.000000
92700.000000;30800.000000;1106.463100;1106.463100;1106.463100;0.000000
93000.000000;30800.000000;1016.950000;1016.950000;1016.950000;0.000000
93300.000000;30800.000000;1006.827800;1006.827800;1006.827800;0.000000
93600.000000;30800.000000;900.901600;900.901600;900.901600;0.000000
93900.000000;30800.000000;1443.123000;1443.123000;1443.123000;0.000000
94200.000000;30800.000000;2178.315500;2178.315500;2178.315500;0.000000
94500.000000;30800.000000;1250.147600;1250.147600;1250.147600;0.000000
94800.000000;30800.000000;1137.350000;1137.350000;1137.350000;0.000000
95100.000000;30800.000000;1588.850000;1588.850000;1588.850000;0.000000
95400.000000;30800.000000;1227.546800;1227.546800;1227.546800;0.000000
95700.000000;30800.000000;1950.050000;1950.050000;1950.050000;0.000000
96000.000000;30800.000000;6356.647000;6356.647000;6356.647000;0.000000
96300.000000;30800.000000;8389.214000;8389.214000;8389.214000;0.000000
96600.000000;30800.000000;4243.364700;4243.364700;4243.364700;0.000000
96900.000000;30800.000000;2381.778600;2381.778600;2381.778600;0.000000
97200.000000;30800.000000;1793.413900;1793.413900;1793.413900;0.000000
97500.000000;30800.000000;6051.476000;6051.476000;6051.476000;0.000000
97800.000000;30800.000000;12908.385000;12908.385000;12908.385000;0.000000
98100.000000;30800.000000;13746.025000;13746.025000;13746.025000;0.000000
98400.000000;30800.000000;10567.766000;10567.766000;10567.766000;0.000000
98700.000000;30800.000000;13187.584000;13187.584000;13187.584000;0.000000
99000.000000;30800.000000;12543.401000;12543.401000;12543.401000;0.000000
99300.000000;30800.000000;10621.000000;10621.000000;10621.000000;0.000000
99600.000000;30800.000000;9607.877000;9607.877000;9607.877000;0.000000
99900.000000;30800.000000;13033.214000;13033.214000;13033.214000;0.000000
100200.000000;30800.000000;15878.524000;15878.524000;15878.524000;0.000000
100500.000000;30800.000000;21013.369000;21013.369000;21013.369000;0.000000
100800.000000;30800.000000;21811.492000;21811.492000;21811.492000;0.000000
101100.000000;30800.000000;22224.851000;22224.851000;22224.851000;0.000000
101400.000000;30800.000000;22655.625000;22655.625000;22655.625000;0.000000
101700.000000;30800.000000;16605.353000;16605.353000;16605.353000;0.000000
102000.000000;30800.000000;20169.107000;20169.107000;20169.107000;0.000000
102300.000000;30800.000000;20459.615000;20459.615000;20459.615000;0.000000
102600.000000;30800.000000;12708.091000;12708.091000;12708.091000;0.000000
102900.000000;30800.000000;10009.325000;10009.325000;10009.325000;0.000000
103200.000000;30800.000000;8216.139000;8216.139000;8216.139000;0.000000
103500.000000;30800.000000;12989.139000;12989.139000;12989.139000;0.000000
103800.000000;30800.000000;15237.050000;15237.050000;15237.050000;0.000000
104100.000000;30800.000000;10638.415000;10638.415000;10638.415000;0.000000
104400.000000;30800.000000;26295.575000;26295.575000;26295.575000;0.000000
104700.000000;30800.000000;6285.353000;6285.353000;6285.353000;0.000000
105000.000000;30800.000000;9063.325000;9063.325000;9063.325000;0.000000
105300.000000;30800.000000;7114.909000;7114.909000;7114.909000;0.000000
105600.000000;30800.000000;17953.016000;17953.016000;17953.016000;0.000000
105900.000000;30800.000000;17953.016000;17953.016000;17953.016000;0.000000
106200.000000;30800.000000;15638.842000;15638.842000;15638.842000;0.000000
106500.000000;30800.000000;20263.492000;20263.492000;20263.492000;0.000000
106800.000000;30800.000000;17447.508000;17447.508000;17447.508000;0.000000
107100.000000;30800.000000;26868.550000;26868.550000;26868.550000;0.000000
107400.000000;30800.000000;25185.401000;25185.401000;25185.401000;0.000000
107700.000000;30800.000000;30939.532000;30939.532000;30939.532000;0.000000
108000.000000;30800.000000;14908.401000;14908.401000;14908.401000;0.000000
108300.000000;30800.000000;17660.100000;17660.100000;17660.100000;0.000000
108600.000000;30800.000000;12222.492000;12222.492000;12222.492000;0.000000
108900.000000;30800.000000;32826.200000;32826.200000;32826.200000;0.000000
109200.000000;30800.000000;29259.436000;29259.436000;29259.436000;0.000000
109500.000000;30800.000000;20436.739000;20436.739000;20436.739000;0.000000
109800.000000;30800.000000;18092.250000;18092.250000;18092.250000;0.000000
110100.000000;30800.000000;33495.968000;33495.968000;33495.968000;0.000000
110400.000000;30800.000000;28768.032000;28768.032000;28768.032000;0.000000
110700.000000;30800.000000;29686.125000;29686.125000;29686.125000;0.000000
111000.000000;30800.000000;28652.663000;28652.663000;28652.663000;0.000000
111300.000000;30800.000000;30311.861000;30311.861000;30311.861000;0.000000
111600.000000;30800.000000;32581.100000;32581.100000;32581.100000;0.000000
111900.000000;30800.000000;31233.738000;31233.738000;31233.738000;0.000000
112200.000000;30800.000000;30771.230000;30771.230000;30771.230000;0.000000
112500.000000;30800.000000;31120.476000;31120.476000;31120.476000;0.000000
112800.000000;30800.000000;31251.583000;31251.583000;31251.583000;0.000000
113100.000000;30800.000000;30749.214000;30749.214000;30749.214000;0.000000
113400.000000;30800.000000;30646.401000;30646.401000;30646.401000;0.000000
113700.000000;30800.000000;29115.214000;29115.214000;29115.214000;0.000000
114000.000000;30800.000000;31793.770000;31793.770000;31793.770000;0.000000
114300.000000;30800.000000;31310.450000;31310.450000;31310.450000;0.000000
114600.000000;30800.000000;28632.754000;28632.754000;28632.754000;0.000000
114900.000000;30800.000000;31085.775000;31085.775000;31085.775000;0.000000
115200.000000;30800.000000;29623.861000;29623.861000;29623.861000;0.000000
115500.000000;30800.000000;32393.663000;32393.663000;32393.663000;0.000000
115800.000000;30800.000000;32080.107000;32080.107000;32080.107000;0.000000
116100.000000;30800.000000;29953.155000;29953.155000;29953.155000;0.000000
116400.000000;30800.000000;29183.369000;29183.369000;29183.369000;0.000000
116700.000000;30800.000000;25786.025000;25786.025000;25786.025000;0.000000
117000.000000;30800.000000;21969.861000;21969.861000;21969.861000;0.000000
117300.000000;30800.000000;23334.337000;23334.337000;23334.337000;0.000000
117600.000000;30800.000000;30435.400000;30435.400000;30435.400000;0.000000
117900.000000;30800.000000;31911.246000;31911.246000;31911.246000;0.000000
118200.000000;30800.000000;32074.861000;32074.861000;32074.861000;0.000000
118500.000000;30800.000000;28138.770000;28138.770000;28138.770000;0.000000
118800.000000;30800.000000;26077.350000;26077.350000;26077.350000;0.000000
119100.000000;30800.000000;27875.524000;27875.524000;27875.524000;0.000000
119400.000000;30800.000000;28549.893000;28549.893000;28549.893000;0.000000
119700.000000;30800.000000;27604.968000;27604.968000;27604.968000;0.000000
120000.000000;30800.000000;28254.139000;28254.139000;28254.139000;0.000000
120300.000000;30800.000000;27651.107000;27651.107000;27651.107000;0.000000
120600.000000;30800.000000;27997.214000;27997.214000;27997.214000;0.000000
120900.000000;30800.000000;26447.107000;26447.107000;26447.107000;0.000000
121200.000000;30800.000000;25316.250000;25316.250000;25316.250000;0.000000
121500.000000;30800.000000;25444.476000;25444.476000;25444.476000;0.000000
121800.000000;30800.000000;25977.375000;25977.375000;25977.375000;0.000000
122100.000000;30800.000000;26023.170000;26023.170000;26023.170000;0.000000
122400.000000;30800.000000;25583.925000;25583.925000;25583.925000;0.000000
122700.000000;30800.000000;24929.250000;24929.250000;24929.250000;0.000000
123000.000000;30800.000000;24642.139000;24642.139000;24642.139000;0.000000
123300.000000;30800.000000;25456.000000;25456.000000;25456.000000;0.000000
123600.000000;30800.000000;18520.401000;18520.401000;18520.401000;0.000000
123900.000000;30800.000000;20930.250000;20930.250000;20930.250000;0.000000
124200.000000;30800.000000;9663.476000;9663.476000;9663.476000;0.000000
124500.000000;30800.000000;14648.337000;14648.337000;14648.337000;0.000000
124800.000000;30800.000000;17610.091000;17610.091000;17610.091000;0.000000
125100.000000;30800.000000;7679.155000;7679.155000;7679.155000;0.000000
125400.000000;30800.000000;6745.625000;6745.625000;6745.625000;0.000000
125700.000000;30800.000000;6097.615000;6097.615000;6097.615000;0.000000
126000.000000;30800.000000;5557.234000;5557.234000;5557.234000;0.000000
126300.000000;30800.000000;7495.975000;7495.975000;7495.975000;0.000000
126600.000000;30800.000000;5731.599000;5731.599000;5731.599000;0.000000
126900.000000;30800.000000;6563.262000;6563.262000;6563.262000;0.000000
127200.000000;30800.000000;9025.700000;9025.700000;9025.700000;0.000000
127500.000000;30800.000000;8401.770000;8401.770000;8401.770000;0.000000
127800.000000;30800.000000;10698.400000;10698.400000;10698.400000;0.000000
128100.000000;30800.000000;5974.936000;5974.936000;5974.936000;0.000000
128400.000000;30800.000000;6743.647000;6743.647000;6743.647000;0.000000
128700.000000;30800.000000;5227.123000;5227.123000;5227.123000;0.000000
129000.000000;30800.000000;3423.875000;3423.875000;3423.875000;0.000000
129300.000000;30800.000000;3778.883000;3778.883000;3778.883000;0.000000
129600.000000;30800.000000;4260.225000;4260.225000;4260.225000;0.000000
129900.000000;30800.000000;6298.984000;6298.984000;6298.984000;0.000000
130200.000000;30800.000000;9930.850000;9930.850000;9930.850000;0.000000
130500.000000;30800.000000;10249.738000;10249.738000;10249.738000;0.000000
130800.000000;30800.000000;10238.214000;10238.214000;10238.214000;0.000000
131100.000000;30800.000000;8520.278000;8520.278000;8520.278000;0.000000
131400.000000;30800.000000;6937.663000;6937.663000;6937.663000;0.000000
131700.000000;30800.000000;6412.246000;6412.246000;6412.246000;0.000000
132000.000000;30800.000000;5715.775000;5715.775000;5715.775000;0.000000
132300.000000;30800.000000;4433.214000;4433.214000;4433.214000;0.000000
132600.000000;30800.000000;4331.476000;4331.476000;4331.476000;0.000000
132900.000000;30800.000000;3890.975400;3890.975400;3890.975400;0.000000
133200.000000;30800.000000;4370.262000;4370.262000;4370.262000;0.000000
133500.000000;30800.000000;3708.238300;3708.238300;3708.238300;0.000000
133800.000000;30800.000000;3459.350000;3459.350000;3459.350000;0.000000
134100.000000;30800.000000;3576.340100;3576.340100;3576.340100;0.000000
134400.000000;30800.000000;3107.536900;3107.536900;3107.536900;0.000000
134700.000000;30800.000000;2486.659900;2486.659900;2486.659900;0.000000
135000.000000;30800.000000;2316.754000;2316.754000;2316.754000;0.000000
135300.000000;30800.000000;2112.375000;2112.375000;2112.375000;0.000000
135600.000000;30800.000000;2079.733700;2079.733700;2079.733700;0.000000
135900.000000;30800.000000;1928.550000;1928.550000;1928.550000;0.000000
136200.000000;30800.000000;2011.561500;2011.561500;2011.561500;0.000000
136500.000000;30800.000000;2033.586100;2033.586100;2033.586100;0.000000
136800.000000;30800.000000;1988.487700;1988.487700;1988.487700;0.000000
137100.000000;30800.000000;2141.610700;2141.610700;2141.610700;0.000000
137400.000000;30800.000000;1683.290900;1683.290900;1683.290900;0.000000
137700.000000;30800.000000;1272.172200;1272.172200;1272.172200;0.000000
138000.000000;30800.000000;1093.877000;1093.877000;1093.877000;0.000000
138300.000000;30800.000000;950.196800;950.196800;950.196800;0.000000
138600.000000;30800.000000;639.754000;639.754000;639.754000;0.000000
138900.000000;30800.000000;454.725000;454.725000;454.725000;0.000000
139200.000000;30800.000000;394.341390;394.341390;394.341390;0.000000
139500.000000;30800.000000;241.219680;241.219680;241.219680;0.000000
139800.000000;30800.000000;222.341390;222.341390;222.341390;0.000000
140100.000000;30800.000000;0.000000;0.000000;0.000000;0.000000
140400.000000;30800.000000;133.195080;133.195080;133.195080;0.000000
140700.000000;30800.000000;266.390160;266.390160;266.390160;0.000000
141000.000000;30800.000000;174.097540;174.097540;174.097540;0.000000
141300.000000;30800.000000;0.000000;0.000000;0.000000;0.000000
141600.000000;30800.000000;0.000000;0.000000;0.000000;0.000000
141900.000000;30800.000000;0.000000;0.000000;0.000000;0.000000
142200.000000;30800.000000;0.000000;0.000000;0.000000;0.000000
142500.000000;30800.000000;0.000000;0.000000;0.000000;0.000000
142800.000000;30800.000000;0.000000;0.000000;0.000000;0.000000
143100.000000;30800.000000;0.000000;0.000000;0.000000;0.000000
143400.000000;30800.000000;0.000000;0.000000;0.000000;0.000000
143700.000000;30800.000000;0.000000;0.000000;0.000000;0.000000
144000.000000;30800.000000;0.000000;0.000000;0.000000;0.000000
144300.000000;30800.000000;0.000000;0.000000;0.000000;0.000000
144600.000000;30800.000000;0.000000;0.000000;0.000000;0.000000
144900.000000;30800.000000;0.000000;0.000000;0.000000;0.000000
145200.000000;30800.000000;0.000000;0.000000;0.000000;0.000000
145500.000000;30800.000000;0.000000;0.000000;0.000000;0.000000
145800.000000;30800.000000;0.000000;0.000000;0.000000;0.000000
146100.000000;30800.000000;0.000000;0.000000;0.000000;0.000000
146400.000000;30800.000000;0.000000;0.000000;0.000000;0.000000
146700.000000;30800.000000;0.000000;0.000000;0.000000;0.000000
147000.000000;30800.000000;0.000000;0.000000;0.000000;0.000000
147300.000000;30800.000000;0.000000;0.000000;0.000000;0.000000
147600.000000;30800.000000;0.000000;0.000000;0.000000;0.000000
147900.000000;30800.000000;0.000000;0.000000;0.000000;0.000000
148200.000000;30800.000000;0.000000;0.000000;0.000000;0.000000
148500.000000;30800.000000;0.000000;0.000000;0.000000;0.000000
148800.000000;30800.000000;0.000000;0.000000;0.000000;0.000000
149100.000000;30800.000000;0.000000;0.000000;0.000000;0.000000
149400.000000;30800.000000;0.000000;0.000000;0.000000;0.000000
149700.000000;30800.000000;0.000000;0.000000;0.000000;0.000000
150000.000000;30800.000000;0.000000;0.000000;0.000000;0.000000
150300.000000;30800.000000;0.000000;0.000000;0.000000;0.000000
150600.000000;30800.000000;0.000000;0.000000;0.000000;0.000000
150900.000000;30800.000000;0.000000;0.000000;0.000000;0.000000
151200.000000;30800.000000;0.000000;0.000000;0.000000;0.000000
151500.000000;30800.000000;0.000000;0.000000;0.000000;0.000000
151800.000000;30800.000000;0.000000;0.000000;0.000000;0.000000
152100.000000;30800.000000;0.000000;0.000000;0.000000;0.000000
152400.000000;30800.000000;0.000000;0.000000;0.000000;0.000000
152700.000000;30800.000000;0.000000;0.000000;0.000000;0.000000
153000.000000;30800.000000;0.000000;0.000000;0.000000;0.000000
153300.000000;30800.000000;0.000000;0.000000;0.000000;0.000000
153600.000000;30800.000000;0.000000;0.000000;0.000000;0.000000
153900.000000;30800.000000;0.000000;0.000000;0.000000;0.000000
154200.000000;30800.000000;0.000000;0.000000;0.000000;0.000000
154500.000000;30800.000000;0.000000;0.000000;0.000000;0.000000
154800.000000;30800.000000;0.000000;0.000000;0.000000;0.000000
155100.000000;30800.000000;0.000000;0.000000;0.000000;0.000000
155400.000000;30800.000000;0.000000;0.000000;0.000000;0.000000
155700.000000;30800.000000;0.000000;0.000000;0.000000;0.000000
156000.000000;30800.000000;0.000000;0.000000;0.000000;0.000000
